\relax 
\providecommand\babel@aux[2]{}
\@nameuse{bbl@beforestart}
\catcode `"\active 
\catcode `<\active 
\catcode `>\active 
\@nameuse{es@quoting}
\babel@aux{spanish}{}
\@writefile{toc}{\contentsline {part}{I\hspace  {1em}Fundamentos}{3}{}\protected@file@percent }
\@writefile{toc}{\contentsline {chapter}{\numberline {1}Introducción}{5}{}\protected@file@percent }
\@writefile{lof}{\addvspace {10\p@ }}
\@writefile{lot}{\addvspace {10\p@ }}
\@writefile{toc}{\contentsline {section}{\numberline {1.1}Funcionamiento}{5}{}\protected@file@percent }
\@writefile{toc}{\contentsline {subsection}{\numberline {1.1.1}Descripción}{5}{}\protected@file@percent }
\@writefile{toc}{\contentsline {subsection}{\numberline {1.1.2}Características}{5}{}\protected@file@percent }
\@writefile{toc}{\contentsline {section}{\numberline {1.2}Tipos Básicos}{5}{}\protected@file@percent }
\@writefile{toc}{\contentsline {subsection}{\numberline {1.2.1}Inversor}{5}{}\protected@file@percent }
\@writefile{lof}{\contentsline {figure}{\numberline {1.1}{\ignorespaces Amplificador Inversor.}}{6}{}\protected@file@percent }
\@writefile{toc}{\contentsline {subsection}{\numberline {1.2.2}No Inversor}{6}{}\protected@file@percent }
\@writefile{toc}{\contentsline {subsection}{\numberline {1.2.3}Seguidor de Tensión}{6}{}\protected@file@percent }
\@writefile{toc}{\contentsline {subsection}{\numberline {1.2.4}Comparador}{6}{}\protected@file@percent }
\@writefile{lof}{\contentsline {figure}{\numberline {1.2}{\ignorespaces Amplificador No Inversor.}}{7}{}\protected@file@percent }
\@writefile{lof}{\contentsline {figure}{\numberline {1.3}{\ignorespaces Seguidor de Tensión.}}{7}{}\protected@file@percent }
\@writefile{lof}{\contentsline {figure}{\numberline {1.4}{\ignorespaces Comparador}}{7}{}\protected@file@percent }
\@writefile{toc}{\contentsline {chapter}{\numberline {2}Usos}{9}{}\protected@file@percent }
\@writefile{lof}{\addvspace {10\p@ }}
\@writefile{lot}{\addvspace {10\p@ }}
\@writefile{toc}{\contentsline {section}{\numberline {2.1}Operaciones}{9}{}\protected@file@percent }
\@writefile{toc}{\contentsline {subsection}{\numberline {2.1.1}Sumador}{9}{}\protected@file@percent }
\@writefile{lof}{\contentsline {figure}{\numberline {2.1}{\ignorespaces Sumador.}}{9}{}\protected@file@percent }
\@writefile{toc}{\contentsline {subsection}{\numberline {2.1.2}Restador}{9}{}\protected@file@percent }
\@writefile{lof}{\contentsline {figure}{\numberline {2.2}{\ignorespaces Restador.}}{10}{}\protected@file@percent }
\@writefile{toc}{\contentsline {subsection}{\numberline {2.1.3}Integrador}{10}{}\protected@file@percent }
\@writefile{lof}{\contentsline {figure}{\numberline {2.3}{\ignorespaces Integrador.}}{10}{}\protected@file@percent }
\@writefile{toc}{\contentsline {subsection}{\numberline {2.1.4}Diferenciador}{11}{}\protected@file@percent }
\@writefile{lof}{\contentsline {figure}{\numberline {2.4}{\ignorespaces Derivador.}}{11}{}\protected@file@percent }
\@writefile{toc}{\contentsline {subsection}{\numberline {2.1.5}Función Exponencial}{11}{}\protected@file@percent }
\@writefile{lof}{\contentsline {figure}{\numberline {2.5}{\ignorespaces Exponencial.}}{11}{}\protected@file@percent }
\@writefile{toc}{\contentsline {subsection}{\numberline {2.1.6}Función Logarítmica}{12}{}\protected@file@percent }
\@writefile{lof}{\contentsline {figure}{\numberline {2.6}{\ignorespaces Logaritmo.}}{12}{}\protected@file@percent }
\@writefile{toc}{\contentsline {section}{\numberline {2.2}Otras Aplicaciones}{12}{}\protected@file@percent }
\@writefile{toc}{\contentsline {subsection}{\numberline {2.2.1}Convertidor de Corriente a Tensión}{12}{}\protected@file@percent }
\@writefile{toc}{\contentsline {subsection}{\numberline {2.2.2}Convertidor Analógico Digital (R-2R)}{12}{}\protected@file@percent }
\@writefile{lof}{\contentsline {figure}{\numberline {2.7}{\ignorespaces Convertidor Analógico Digital R-2R.}}{12}{}\protected@file@percent }
\@writefile{toc}{\contentsline {subsection}{\numberline {2.2.3}Filtros Activos}{13}{}\protected@file@percent }
\@writefile{toc}{\contentsline {subsection}{\numberline {2.2.4}Comparador con Histéresis Ajustable.}{13}{}\protected@file@percent }
\@writefile{toc}{\contentsline {paragraph}{Saturado a Positivo}{13}{}\protected@file@percent }
\@writefile{toc}{\contentsline {paragraph}{Saturado a Negativo}{13}{}\protected@file@percent }
\@writefile{lof}{\contentsline {figure}{\numberline {2.8}{\ignorespaces Trigger Schmitt.}}{13}{}\protected@file@percent }
\@writefile{toc}{\contentsline {subsection}{\numberline {2.2.5}Comparador de Ventana}{14}{}\protected@file@percent }
\@writefile{toc}{\contentsline {part}{II\hspace  {1em}Anexos}{15}{}\protected@file@percent }
\@writefile{toc}{\contentsline {chapter}{\numberline {3}Circuitos de Ejemplo}{17}{}\protected@file@percent }
\@writefile{lof}{\addvspace {10\p@ }}
\@writefile{lot}{\addvspace {10\p@ }}
\@writefile{toc}{\contentsline {section}{\numberline {3.1}Regulador de Tensión}{18}{}\protected@file@percent }
\@writefile{toc}{\contentsline {section}{\numberline {3.2}Fuente DC Simétrica}{18}{}\protected@file@percent }
\@writefile{toc}{\contentsline {section}{\numberline {3.3}Mezclador de Audio}{18}{}\protected@file@percent }
\@writefile{toc}{\contentsline {section}{\numberline {3.4}Control de Volumen con JFET}{18}{}\protected@file@percent }
\@writefile{toc}{\contentsline {section}{\numberline {3.5}Regulador de Velocidad Motor DC - v1}{18}{}\protected@file@percent }
\@writefile{toc}{\contentsline {section}{\numberline {3.6}Variador de Velocidad Motor DC - v2}{18}{}\protected@file@percent }
\@writefile{toc}{\contentsline {section}{\numberline {3.7}Variador de Velocidad Motor DC - v3}{18}{}\protected@file@percent }
\@writefile{toc}{\contentsline {section}{\numberline {3.8}Amplificador de Instrumentación}{18}{}\protected@file@percent }
\@writefile{toc}{\contentsline {section}{\numberline {3.9}Regulador de Nivel de Depósito}{18}{}\protected@file@percent }
\@writefile{toc}{\contentsline {section}{\numberline {3.10}Comparador de Temperatura a Voltaje}{18}{}\protected@file@percent }
\@writefile{toc}{\contentsline {section}{\numberline {3.11}Regulador PID de Temperatura}{18}{}\protected@file@percent }
\@writefile{toc}{\contentsline {section}{\numberline {3.12}Oscilador de Onda Cuadrada}{18}{}\protected@file@percent }
\@writefile{toc}{\contentsline {section}{\numberline {3.13}Generador de Señal Cuadrada y Triangular}{18}{}\protected@file@percent }
\@writefile{toc}{\contentsline {section}{\numberline {3.14}Regulador PWM de Velocidad}{18}{}\protected@file@percent }
\@writefile{toc}{\contentsline {section}{\numberline {3.15}Generador PWM 0 - 5V}{18}{}\protected@file@percent }
\@writefile{toc}{\contentsline {section}{\numberline {3.16}Adaptador de Rangos de Tensiones}{18}{}\protected@file@percent }
\@writefile{toc}{\contentsline {section}{\numberline {3.17}Servomotor}{18}{}\protected@file@percent }
\@writefile{toc}{\contentsline {section}{\numberline {3.18}Convertidor de Intensidad a Tensión}{18}{}\protected@file@percent }
\@writefile{toc}{\contentsline {section}{\numberline {3.19}Fuente de Intensidad Constante}{18}{}\protected@file@percent }
\@writefile{toc}{\contentsline {section}{\numberline {3.20}Temporizador con 555}{18}{}\protected@file@percent }
\@writefile{toc}{\contentsline {section}{\numberline {3.21}Rectificador de Tensiones}{18}{}\protected@file@percent }
\@writefile{toc}{\contentsline {section}{\numberline {3.22}Amplificador de audio 8002}{18}{}\protected@file@percent }
\@writefile{toc}{\contentsline {section}{\numberline {3.23}Preamplificador de Alterna}{18}{}\protected@file@percent }
\@writefile{toc}{\contentsline {section}{\numberline {3.24}Regulador PWM Lámparas LED}{18}{}\protected@file@percent }
\@writefile{toc}{\contentsline {section}{\numberline {3.25}Regulador de Velocidad para Motor DC - v4}{18}{}\protected@file@percent }
\@writefile{toc}{\contentsline {section}{\numberline {3.26}Generador de Corriente Variable}{18}{}\protected@file@percent }
\@writefile{toc}{\contentsline {section}{\numberline {3.27}Convertidor de Voltajes de Control}{18}{}\protected@file@percent }
\@writefile{toc}{\contentsline {section}{\numberline {3.28}Cargador Inteligente de Baterías}{18}{}\protected@file@percent }
\gdef \@abspage@last{18}
